<?xml version="1.0" encoding="UTF-8"?>
<svg width="14px" height="12px" viewBox="0 0 14 12" version="1.1" xmlns="http://www.w3.org/2000/svg" xmlns:xlink="http://www.w3.org/1999/xlink">
    <!-- Generator: Sketch 64 (93537) - https://sketch.com -->
    <title>Icon</title>
    <desc>Created with Sketch.</desc>
    <g id="控件" stroke="none" stroke-width="1" fill="none" fill-rule="evenodd">
        <g id="form/cell/text-+-icon-right" transform="translate(-264.000000, -15.000000)" fill="#222222">
            <g id="icon/heart/default" transform="translate(263.000000, 13.000000)">
                <g id="icon-example">
                    <path d="M13.6451481,2.73705271 L13.9748737,3.02943725 C15.2365676,4.29643695 15.333621,6.2900945 14.2660339,7.66888771 L13.9748737,8 L8,14 L2.02512627,8 C0.658291245,6.627417 0.658291245,4.40202025 2.02512627,3.02943725 C3.28682013,1.76243756 5.27212883,1.66497604 6.64514805,2.73705271 L6.97487373,3.02943725 L8,4.0561104 L9.02512627,3.02943725 C10.2868201,1.76243756 12.2721288,1.66497604 13.6451481,2.73705271 Z M12.9584878,3.4716377 C12,2.77669825 10.6739856,2.85484802 9.79915674,3.67171811 L9.73276594,3.73601073 L8,5.47139136 L6.28466667,3.75366667 L6.009,3.50933333 L5.95848784,3.47163769 C4.9994085,2.77626311 3.6723484,2.85492447 2.79839897,3.67236602 L2.73371517,3.73505879 C1.77669538,4.69610316 1.7558906,6.24293997 2.67130084,7.22945357 L2.73371517,7.29437846 L8,12.5826667 L13.2426667,7.318 L13.4896667,7.03733333 L13.5301612,6.98314763 C14.2229545,6.0177054 14.1443954,4.68109536 13.3303535,3.80178232 L13.2803333,3.74966667 L13.009,3.50933333 L12.9584878,3.4716377 Z" id="heart" fill-rule="nonzero"></path>
                </g>
            </g>
        </g>
    </g>
</svg>