<?xml version="1.0" encoding="UTF-8"?>
<svg viewBox="0 0 7 14" version="1.1" xmlns="http://www.w3.org/2000/svg" xmlns:xlink="http://www.w3.org/1999/xlink">
    <!-- Generator: Sketch 64 (93537) - https://sketch.com -->
    <title>Icons / Chevron / Right / Background</title>
    <desc>Created with Sketch.</desc>
    <g id="Final" stroke="none" stroke-width="1" fill="none" fill-rule="evenodd">
        <g id="ACCESS-Bronze" transform="translate(-311.000000, -526.000000)" fill="#FFFFFF" fill-rule="nonzero">
            <g id="目前您的进程" transform="translate(0.000000, 294.000000)">
                <g id="金卡">
                    <g id="编组-5" transform="translate(24.000000, 64.000000)">
                        <g id="Icons-/-Chevron-/-Right-/-Background" transform="translate(279.000000, 162.000000)">
                            <path d="M8.39272627,17.8359389 C8.04986886,18.2383202 8.0730306,18.8656173 8.44445946,19.2370461 C8.81588833,19.608475 9.39493177,19.5833831 9.73778918,19.1810018 L15.0044416,13 L9.73778918,6.81899816 C9.39493177,6.41661689 8.81588833,6.39152501 8.44445946,6.76295388 C8.0730306,7.13438274 8.04986886,7.7616798 8.39272627,8.16406107 L12.5132896,13 L8.39272627,17.8359389 Z" id="Icons-/-Chevron-/-Right-/-Black"></path>
                        </g>
                    </g>
                </g>
            </g>
        </g>
    </g>
</svg>
